{
  "status": "ok",
  "response": {
    "match_id": 284,
    "title": "Zimbabwe vs India",
    "short_title": "ZIM vs IND",
    "subtitle": "3rd T20I",
    "format": 3,
    "format_str": "T20I",
    "status": 2,
    "status_str": "Completed",
    "status_note": "India won by 3 runs",
    "verified": "true",
    "pre_squad": "true",
    "odds_available": "false",
    "game_state": 0,
    "game_state_str": "Default",
    "competition": {
      "cid": 89304,
      "title": "India in Zimbabwe T20I Series",
      "abbr": "ci",
      "season": "2016",
      "datestart": "2016-06-18",
      "dateend": "2016-06-22",
      "total_matches": "3",
      "total_rounds": "1",
      "total_teams": "2",
      "category": "international",
      "match_format": "mixed",
      "status": "result",
      "country": "int"
    },
    "teama": {
      "team_id": 493,
      "name": "Zimbabwe",
      "short_name": "ZIM",
      "logo_url": "https://cricket.entitysport.com/assets/uploads/2020/12/Zimbabwe.png",
      "thumb_url": "https://cricket.entitysport.com/assets/uploads/2020/12/Zimbabwe.png",
      "scores_full": "135/6 (20 ov)",
      "scores": "135/6",
      "overs": "20"
    },
    "teamb": {
      "team_id": 25,
      "name": "India",
      "short_name": "IND",
      "logo_url": "https://cricket.entitysport.com/assets/uploads/2020/12/India.png",
      "thumb_url": "https://cricket.entitysport.com/assets/uploads/2020/12/India.png",
      "scores_full": "138/6 (20 ov)",
      "scores": "138/6",
      "overs": "20"
    },
    "date_start": "2016-06-22 11:00:00",
    "date_end": "2016-06-22 23:00:00",
    "timestamp_start": 1466593200,
    "timestamp_end": 1466636400,
    "venue": {
      "venue_id": "13",
      "name": "Harare Sports Club",
      "location": "Harare",
      "timezone": "+2"
    },
    "umpires": "Russell Tiffin (Zimbabwe), Jeremiah Matibiri (Zimbabwe), Langton Rusere (Zimbabwe, TV)",
    "referee": "Sir Richie Richardson (West Indies)",
    "equation": "",
    "live": "",
    "result": "IND won by 3 runs",
    "result_type": 2,
    "win_margin": "3 runs",
    "winning_team_id": 25,
    "commentary": 1,
    "wagon": 1,
    "latest_inning_number": 2,
    "toss": {
      "text": "Zimbabwe won the toss & elected to field",
      "winner": 493,
      "decision": 2
    }
  },
  "etag": "a0533bae0c3103ea88d9421a53a538c0",
  "modified": "2020-09-09 10:57:58",
  "datetime": "2021-02-23 12:36:35",
  "api_version": "2.0"
}
